…
So there are 51 observations where respondents gave an answer to J29 even though they had previously said they never smoke. Next we check whether these 51 observations were valid answers or whether they were simply coded with negative non-response codes,


```r
nids%>%
  filter(!is.na(w1_a_j29) & eversmoke!=1 & adult20==1)%>%
  select(w1_a_j29)
```

```
## Adding missing grouping variables: `hhid`
```

```
## # A tibble: 51 x 2
## # Groups:   hhid [49]
##      hhid w1_a_j29
##     <int>    <int>
##  1 101100       -8
##  2 101929       -3
##  3 101954       -3
##  4 102772       11
##  5 103120       -3
##  6 103151       -3
##  7 103210       51
##  8 103317       -3
##  9 103333       -3
## 10 103421       -3
## # ... with 41 more rows
```
…
