The Analysis of South African Household Survey Data using R
…
summary(nids$w1_fwag)

##    Min. 1st Qu.  Median    Mean 3rd Qu.    Max.    NA's 
##    20.0   936.7  1600.0  3233.4  3550.0 90000.0   26671

Note that the median income is R1600. The median income is a lot less than the mean income. What is going on here? Have a look at the income histogram that we created in the first section of this chapter. The graph shows us that most of the income values are less than R20 000, with a couple of much larger values - particularly one of R90 000. This extremely large value is inflating the mean of the distribution. In contrast, the median treats it as just one more value above the “half way” mark. For many variables with skewed distributions, the median is a very useful statistic. The mode of a distribution is the value that appears most often in the distribution. The mode is a seldom used measure, but we should be aware of it. Let’s consider the education variable - w1_best_edu.

The mode of this variable represents the most commonly reported educational level amongst NIDS respondents. There is no simple way to compute the mode in R. we can summarise the grouped categories of w1_best_edu and see which one has the most frequency.

nids%>%
  group_by(w1_best_edu) %>%
  summarise(n=n())

## # A tibble: 31 x 2
##    w1_best_edu     n
##          <int> <int>
##  1          -9   132
##  2          -8     1
##  3          -5     1
##  4          -3   710
##  5           0   924
##  6           1   883
##  7           2   905
##  8           3  1175
##  9           4  1340
## 10           5  1381
## # ... with 21 more rows

By examining the entire frequency distribution, we should note that the mode of w1_best_edu is 25. In other words a large number of respondents (5731) reported “no schooling” as their level of education, far more than for any other category. That’s not very surprising since infants and toddlers are included in the sample. What is more surprising is the modal level of education for adults 21 and older. Type:

nids%>%
  filter(age >= 21 & !is.na(age))%>%
  group_by(w1_best_edu) %>%
  summarise(n=n())%>%
  print()

## # A tibble: 29 x 2
##    w1_best_edu     n
##          <int> <int>
##  1          -9    57
##  2          -3    15
##  3           0     4
##  4           1   101
##  5           2   241
##  6           3   394
##  7           4   537
##  8           5   626
##  9           6   755
## 10           7   996
## # ... with 19 more rows
…
