The Analysis of South African Household Survey Data using R
…
## [1] 7305

The 7305 that R gives us is the number of households in the data set.

We will be using the hhrestrict variable extensively in future chapters, so let’s try one more example. Suppose we wanted to create a new type of variable that will only be applied to the first person in the household. Let’s look at the household variable for total monthly income (w1_hhincome). First we sort by hhid and then list the hhid, w1_hhincome and hhrestrict variables. The output given below is the first piece of output you should obtain:

nids%>%
  select(hhid, w1_hhincome, hhrestrict)%>%
  arrange(hhid) %>%
  head(25)

## # A tibble: 25 x 3
## # Groups:   hhid [8]
##      hhid w1_hhincome hhrestrict
##     <int>       <dbl>      <dbl>
##  1 101012       1045.          1
##  2 101013        588.          1
##  3 101013        588.          0
##  4 101013        588.          0
##  5 101013        588.          0
##  6 101013        588.          0
##  7 101014       1307.          1
##  8 101014       1307.          0
##  9 101014       1307.          0
## 10 101014       1307.          0
## # ... with 15 more rows

We can see that everyone with the same household identification number (hhid) has the same total household monthly income. However, we want to create a variable that only assigns the total household monthly income to the first person in the household. One reason for doing this is that when we want to calculate the average household monthly income, we only want to count the income from each household once. If we calculate the average household income in South Africa using all the individuals in the dataset then the income level of large households will be weighted more heavily (i.e. a household with 27 members will be counted 27 times, while a household with 1 member will be counted once).

In order to create this new variable that we want, we tell R to create a new variable that is equal to the household income level whenever our hhrestrict variable is equal to 1 (i.e. only for the first person in every household).

nids<-nids%>%
  mutate(hhincome2 = ifelse(hhrestrict==1, w1_hhincome, NA))

Let’s see what our new variable looks like:

nids %>% 
  select(hhid, w1_hhincome,hhincome2, hhrestrict) %>% 
  head(25)

## # A tibble: 25 x 4
## # Groups:   hhid [8]
##      hhid w1_hhincome hhincome2 hhrestrict
##     <int>       <dbl>     <dbl>      <dbl>
##  1 101012       1045.     1045.          1
##  2 101013        588.      588.          1
##  3 101013        588.       NA           0
##  4 101013        588.       NA           0
##  5 101013        588.       NA           0
##  6 101013        588.       NA           0
##  7 101014       1307.     1307.          1
##  8 101014       1307.       NA           0
##  9 101014       1307.       NA           0
## 10 101014       1307.       NA           0
## # ... with 15 more rows
…
