The Analysis of South African Household Survey Data using R
…
6.4 Example 1: Where do households with an elderly member tend to live?

In order to answer this question, we will first want to create a household level variable that assigns the age of the oldest member of the household to every member of the household. It is not a simple task at all - in fact you are probably unable to do it with only the commands that you have learned so far. Luckily, the dplyr package provides us with a quick and simple way to do tasks of this nature. In this case, we use the dplyr command to calculate the oldest age within each household and return the result in a data frame:

nids<-nids%>%
  group_by(hhid)%>%
  mutate(maxage = max(w1_r_best_age_yrs, na.rm = T))

Let’s examine more closely what this command tells R to do. We group nids data by the hhid variable and generating a new variable called maxage (=max(w1_r_best_age_yrs)) that is the maximum value of the w1_r_best_age_yrs variable in each unique hhid. Therefore R assigns every individual in the household a value that is equivalent to the oldest age of the person in that individual’s household.

In summary, this line of commands tells R to generate a new variable called maxage and to assign it the value of the maximum age within the household for every member of the household. To verify this command, type the command:

head(nids[,c("hhid", "w1_r_best_age_yrs", "maxage")], n = 25L)

## # A tibble: 25 x 3
## # Groups:   hhid [8]
##      hhid w1_r_best_age_yrs maxage
##     <int>             <int>  <int>
##  1 101012                51     51
##  2 101013                45     45
##  3 101013                32     45
##  4 101013                 9     45
##  5 101013                13     45
##  6 101013                11     45
##  7 101014                15     62
##  8 101014                25     62
##  9 101014                60     62
## 10 101014                22     62
## # ... with 15 more rows
…
